[gd_scene load_steps=3 format=3 uid="uid://cl2v4jq44q4kh"]

[ext_resource type="Script" path="res://scripts/profile_manager_end.gd" id="1_65kqn"]
[ext_resource type="PackedScene" uid="uid://ds55c28pdsdh3" path="res://scenes/profile_window.tscn" id="2_o6tp3"]

[node name="ProfileManagerEnd" type="Control"]
layout_mode = 3
anchors_preset = 0
script = ExtResource("1_65kqn")

[node name="ProfileWindow1" parent="." instance=ExtResource("2_o6tp3")]
layout_mode = 1
offset_right = 0.0
offset_bottom = -1.52588e-05

[connection signal="profile_deselected" from="ProfileWindow1" to="." method="_on_profile_window_profile_deselected"]
[connection signal="profile_selected" from="ProfileWindow1" to="." method="_on_profile_window_profile_selected"]
