[gd_scene load_steps=4 format=3 uid="uid://bki7gtbrkuxfk"]

[ext_resource type="Script" path="res://scripts/scene_transition.gd" id="1_vy8f5"]

[sub_resource type="Animation" id="Animation_fdc2w"]
resource_name = "fade"
length = 10.0
step = 1.0
tracks/0/type = "value"
tracks/0/imported = false
tracks/0/enabled = true
tracks/0/path = NodePath("SceneTransitionRect:color")
tracks/0/interp = 1
tracks/0/loop_wrap = true
tracks/0/keys = {
"times": PackedFloat32Array(0, 1, 2, 3, 4, 5, 10),
"transitions": PackedFloat32Array(1, 1, 1, 1, 1, 1, 1),
"update": 1,
"values": [Color(0, 0, 0, 0), Color(0, 0, 0, 0.2), Color(0, 0, 0, 0.4), Color(0, 0, 0, 0.6), Color(0, 0, 0, 0.8), Color(0, 0, 0, 1), Color(0, 0, 0, 1)]
}

[sub_resource type="AnimationLibrary" id="AnimationLibrary_nstqp"]
_data = {
"fade": SubResource("Animation_fdc2w")
}

[node name="SceneTransition" type="CanvasLayer"]
visible = false
script = ExtResource("1_vy8f5")

[node name="MusicTimer" type="Timer" parent="."]
one_shot = true

[node name="SceneTransitionRect" type="ColorRect" parent="."]
anchors_preset = 15
anchor_right = 1.0
anchor_bottom = 1.0
grow_horizontal = 2
grow_vertical = 2
color = Color(0, 0, 0, 0)

[node name="AnimationPlayer" type="AnimationPlayer" parent="."]
libraries = {
"": SubResource("AnimationLibrary_nstqp")
}
