[
    {
        "Name": "Boss",
        "Text": "The French guy! Or was him Canadian?"
    },
    {
        "Name": "Boss",
        "Text": "Actually, it doesn't matter. He's the best."
    },
    {
        "Name": "Patricia",
        "Text": "Sometimes he brings those things to the office. They're REALLY good."
    },
    {
        "Name": "Boss",
        "Text": "And his accent is so funny, I end up feeling bad for him."
    },
    {
        "Name": "Boss",
        "Text": "All of his big efforts..."
    },
    {
        "Name": "Boss",
        "Text": "For nothing."
    }
]